<?xml version="1.0" standalone="no"?>
<!DOCTYPE svg PUBLIC "-//W3C//DTD SVG 20010904//EN"
 "http://www.w3.org/TR/2001/REC-SVG-20010904/DTD/svg10.dtd">
<svg version="1.0" xmlns="http://www.w3.org/2000/svg"
 width="500.000000pt" height="500.000000pt" viewBox="0 0 500.000000 500.000000"
 preserveAspectRatio="xMidYMid meet">

<g transform="translate(0.000000,500.000000) scale(0.100000,-0.100000)"
fill="#000000" stroke="none">
<path d="M84 4821 c-60 -37 -70 -129 -19 -180 l25 -26 253 -6 c273 -6 281 -8
364 -68 23 -16 53 -49 67 -73 13 -24 190 -541 392 -1150 l367 -1106 -35 -84
c-50 -118 -61 -175 -55 -282 8 -145 60 -259 167 -363 57 -56 165 -115 240
-132 29 -7 450 -11 1208 -11 1293 0 1209 -5 1239 67 20 48 10 92 -28 129 l-30
29 -1177 5 -1177 5 -42 23 c-153 81 -207 240 -139 409 27 68 31 72 65 77 20 3
577 62 1238 131 1027 107 1212 129 1272 149 168 57 292 166 371 325 40 81 335
1298 325 1343 -8 35 -56 76 -98 82 -18 3 -866 16 -1886 30 -1020 14 -1857 29
-1861 33 -4 4 -35 90 -69 191 -40 120 -74 203 -97 238 -70 105 -186 185 -319
219 -45 11 -117 15 -295 15 -212 0 -238 -2 -266 -19z m3089 -915 c840 -12
1530 -26 1534 -29 3 -4 -49 -235 -116 -514 -136 -566 -155 -619 -239 -694 -54
-48 -129 -86 -187 -94 -127 -19 -2421 -252 -2427 -247 -6 7 -528 1583 -528
1596 0 10 321 7 1963 -18z"/>
<path d="M1486 1044 c-270 -65 -448 -355 -381 -619 53 -205 200 -348 405 -391
195 -41 403 42 520 208 147 209 124 485 -55 663 -128 128 -314 181 -489 139z
m254 -252 c137 -68 190 -238 119 -381 -52 -104 -146 -156 -266 -149 -158 9
-265 122 -265 278 0 217 215 348 412 252z"/>
<path d="M3666 1044 c-270 -65 -448 -355 -381 -619 53 -205 200 -348 405 -391
354 -75 681 252 606 606 -62 292 -344 473 -630 404z m254 -252 c137 -68 190
-238 119 -381 -52 -104 -146 -156 -266 -149 -158 9 -265 122 -265 278 0 217
215 348 412 252z"/>
</g>
</svg>
